<?xml version="1.0" encoding="utf-8"?>
<!-- Generator: Adobe Illustrator 22.0.0, SVG Export Plug-In . SVG Version: 6.00 Build 0)  -->
<svg version="1.1" id="Слой_1" xmlns="http://www.w3.org/2000/svg" xmlns:xlink="http://www.w3.org/1999/xlink" x="0px" y="0px"
	 viewBox="0 0 114.1 70.1" style="enable-background:new 0 0 114.1 70.1;" xml:space="preserve">
<style type="text/css">
	.st0{fill:#FBFBFB;}
	.st1{fill:#EBD3D3;}
</style>
<g>
	<circle class="st0" cx="35.6" cy="35" r="35.1"/>
	<g>
		<g>
			<g>
				<path class="st1" d="M108,35.5l-2.5-9.8c0.7-0.1,1.2-0.7,1.2-1.4v-1.6c0-3.4-2.8-6.2-6.2-6.2H89.2v-3.3c0-1.7-1.4-3.1-3.1-3.1
					H29.2c-1.7,0-3.1,1.4-3.1,3.1v26.9c0,0.8,0.7,1.5,1.5,1.5s1.5-0.7,1.5-1.5V13.1c0-0.1,0-0.1,0.1-0.1h57c0.1,0,0.1,0,0.1,0.1
					v26.9c0,0.8,0.7,1.5,1.5,1.5c0.8,0,1.5-0.7,1.5-1.5v-1.7h17.5l0,0l0,0c2.1,0,4,1.4,4.6,3.4h-4.6c-0.8,0-1.5,0.7-1.5,1.5v3.2
					c0,2.6,2.1,4.6,4.6,4.6h1.7v6.5h-3.9c-1.3-3.7-4.8-6.3-8.9-6.3s-7.6,2.6-8.9,6.3h-0.7V46.4c0-0.8-0.7-1.5-1.5-1.5
					c-0.8,0-1.5,0.7-1.5,1.5v11.2H55.5c-1.3-3.7-4.8-6.3-8.9-6.3s-7.6,2.6-8.9,6.3h-8.5c-0.1,0-0.1,0-0.1-0.1v-3.3h6.4
					c0.8,0,1.5-0.7,1.5-1.5c0-0.8-0.7-1.5-1.5-1.5H21.3c-0.8,0-1.5,0.7-1.5,1.5c0,0.8,0.7,1.5,1.5,1.5h4.8v3.3
					c0,1.7,1.4,3.1,3.1,3.1h8c0,0,0,0.1,0,0.1c0,5.2,4.2,9.4,9.4,9.4s9.4-4.2,9.4-9.4c0,0,0-0.1,0-0.1h33.4c0,0,0,0.1,0,0.1
					c0,5.2,4.2,9.4,9.4,9.4s9.4-4.2,9.4-9.4c0,0,0-0.1,0-0.1h4.8c0.8,0,1.5-0.7,1.5-1.5V43.2C114.6,39.3,111.7,36.1,108,35.5z
					 M89.3,19.4h11.2c1.8,0,3.3,1.5,3.3,3.3v0.1H89.3V19.4z M89.3,35.4v-9.7h13.2l2.4,9.7H89.3L89.3,35.4z M46.6,67.1
					c-3.6,0-6.4-2.9-6.4-6.4c0-3.5,2.9-6.4,6.4-6.4c3.5,0,6.4,2.9,6.4,6.4C53,64.2,50.2,67.1,46.6,67.1z M98.8,67.1
					c-3.6,0-6.4-2.9-6.4-6.4c0-3.5,2.9-6.4,6.4-6.4c3.6,0,6.4,2.9,6.4,6.4C105.3,64.2,102.4,67.1,98.8,67.1z M111.6,48.1h-1.7
					c-0.9,0-1.7-0.8-1.7-1.7v-1.7h3.4V48.1L111.6,48.1z"/>
			</g>
		</g>
		<g>
			<g>
				<path class="st1" d="M46.6,57.6c-1.7,0-3.1,1.4-3.1,3.1s1.4,3.1,3.1,3.1c1.7,0,3.1-1.4,3.1-3.1C49.7,58.9,48.3,57.6,46.6,57.6z"
					/>
			</g>
		</g>
		<g>
			<g>
				<path class="st1" d="M98.8,57.6c-1.7,0-3.1,1.4-3.1,3.1s1.4,3.1,3.1,3.1c1.7,0,3.1-1.4,3.1-3.1S100.5,57.6,98.8,57.6z"/>
			</g>
		</g>
		<g>
			<g>
				<path class="st1" d="M81.5,51.2H59.3c-0.8,0-1.5,0.7-1.5,1.5s0.7,1.5,1.5,1.5h22.2c0.8,0,1.5-0.7,1.5-1.5S82.3,51.2,81.5,51.2z"
					/>
			</g>
		</g>
		<g>
			<g>
				<path class="st1" d="M43.5,44.9h-19c-0.8,0-1.5,0.7-1.5,1.5c0,0.8,0.7,1.5,1.5,1.5h19c0.8,0,1.5-0.7,1.5-1.5
					C44.9,45.6,44.3,44.9,43.5,44.9z"/>
			</g>
		</g>
		<g>
			<g>
				<path class="st1" d="M71.4,24.8c-0.6-0.6-1.5-0.6-2.1,0L56.1,38l-6.9-6.9c-0.6-0.6-1.5-0.6-2.1,0c-0.6,0.6-0.6,1.5,0,2.1
					l7.9,7.9c0.3,0.3,0.7,0.4,1.1,0.4s0.8-0.1,1.1-0.4l14.2-14.2C72,26.3,72,25.3,71.4,24.8z"/>
			</g>
		</g>
	</g>
</g>
</svg>
