<?xml version="1.0" encoding="utf-8"?>
<!-- Generator: Adobe Illustrator 22.0.0, SVG Export Plug-In . SVG Version: 6.00 Build 0)  -->
<svg version="1.1" id="Слой_1" xmlns="http://www.w3.org/2000/svg" xmlns:xlink="http://www.w3.org/1999/xlink" x="0px" y="0px"
	 viewBox="0 0 1247.6 874" style="enable-background:new 0 0 1247.6 874;" xml:space="preserve">
<style type="text/css">
	.st0{fill:#1A1448;}
	.st1{fill:#FFFFFF;}
</style>
<g>
	<g>
		<path d="M201.5,576c0,70.6-85.6,69.4-85.6,69.4H84.1v75.3c0,1.8,0,3.6,0.7,5.3c0.7,2.7,2,5,3.6,7.1l-34.1-19.3v-172
			c0-1.8-0.3-3.9-1-5.9c-0.7-2.4-2-4.7-3.3-6.5c-7.9-9.5-23.8-8.9-23.8-8.9v-4.2h94.9C139.7,516.7,201.5,522.3,201.5,576z
			 M115.8,521.7c-4,0-19.2-0.9-27.1,7.7c-2,2.4-3.6,5.6-4.3,9.5c-0.3,1.2-0.3,2.4-0.3,3.9v96.7h32.1c3.6,0,52.6-0.9,52.6-56.3
			C168.8,577.2,170.7,521.7,115.8,521.7z"/>
		<path d="M431.3,733.1H254.4V729c0,0,28.4,0.9,28.4-19.6V541.6c0-21.9-28.4-21-28.4-21v-4.2H423v54.6h-7.9c0-27.3-6.3-48.6-46-48.6
			h-28.4c-16.9,0-28.1,6.5-28.1,18.4V621h23.5c27.8-0.9,31.4-20.2,31.4-39.7h6v84.8h-6c0-19.6-3.3-38.2-30.1-39.1h-24.8v81.8
			c0,19.6,27.4,18.1,28.1,18.1h36.7c39.7,0,46-27.3,46-54.6h7.9V733.1z"/>
		<path d="M701.5,728.4v4.7h-81.3v-4.7c0,0,27.1,1.2,23.1-22.8c-0.3-2.4-1-4.7-2.3-7.7l-15.5-36.5l-4.3-10.4h-83.7l-4.3,10.4
			l-14.9,35.3c-2.3,7.1-2.3,12.7-1,17.2c5,15.7,29.8,14.5,29.8,14.5v4.7h-66.1v-4.7c0,0,14.2-0.6,25.8-20.8l30.8-72.9l38-89.5
			l-7.6-18.1c-2-4.4-5-8-8.9-10.4l40,7.7c36.4,85.4,70.4,165.7,70.1,165.4c6,13,11.6,28.8,25.8,36.5c1.7,0.9,3.3,1.5,5,1.8
			L701.5,728.4z M618.5,645.1l-4.3-10.4l-35.1-82.1l-0.3,0.9l-34.4,81.2l-4.3,10.4H618.5z"/>
		<path d="M986.8,733.1h-34.7c-6.3,0-12.2-0.6-17.5-2.1c-8.6-2.1-15.9-5.9-21.8-11.9c-1.7-1.2-3-2.7-4.3-4.2
			c-5.6-6.2-10.6-12.5-15.5-19c-6.6-8.9-13.2-17.8-19.5-27c-13.2-19.3-23.8-36.2-25.8-39.1h-38.7v90.7c0,1.8,0,3.6,0.7,5.3
			c0.7,2.7,2,5,3.6,7.1l-34.1-19.3v-172c0-2.1-0.3-3.9-1-5.9c-0.7-2.4-2-4.7-3.3-6.5c-8.3-9.5-23.8-8.9-23.8-8.9v-4.2h89.6
			c0,0,84.3-3.3,84.3,52.2c0,33.2-24.5,48.3-47,55.4c1.7,2.7,3.3,5.3,5.3,8c5.3,8,10.6,16,16.2,24c5.6,8,10.9,15.7,16.9,23.4
			c4.6,6.2,9.3,12.5,14.5,18.1l6.3,6.5l11.9,11.3c3.3,3,7.6,6.2,12.2,8.3l0.7,0.3c0,0,1.3,0.6,3.6,1.2l5,1.5
			c8.6,2.1,10.6,2.4,16.2,3V733.1z M892.6,574.8c0-5,2.3-53.1-51.9-53.1c-4,0-19.2-0.9-27.1,7.7c-2.6,3-4.3,6.8-4.6,12.2V624H841
			C844.6,624,892.6,623.7,892.6,574.8z"/>
		<path d="M1221,668.8v64.3h-175.3V729c0,0,15.9,0.6,24.1-8.9c2.3-3,4-7.1,4.3-12.2v-13v-0.6V528.8c0-1.8-0.3-3.6-0.7-5.3
			c-0.7-2.7-2-5-3.6-7.1l34.1,19.3v6.5v0.6v165.1c0,1.2,0,2.4,0.3,3.3c0.7,3.9,2.3,6.5,4.3,8.9c6.6,6.5,17.9,7.1,22.2,7.1h1.7h34.7
			c40,0,46-31.1,46-58.4H1221z"/>
	</g>
	<path class="st0" d="M991.4,281.4c-13.8,0-6.9,17.3-6.9,17.3s6.9,3.5-1.7,13.8c-15.6,15.6-43.2,31.1-96.8,25.9
		c-33-3.2-74.6-20.9-101.7-33.9c11.9-26.6,18.5-56.2,18.5-87.2C802.8,98.9,706.9,3,588.6,3C480.5,3,391.1,83.1,376.4,187.1
		c-22.9,4-49.3,12.2-74.7,30.3c-41.5,29.4-38,70.9-38,88.2c0,17.3,13.8,15.6,19,12.1c5.2-3.5,6.9-12.1-6.9-17.3s-3.5-20.7-3.5-20.7
		s17.7-65.3,102.4-74.4c-0.2,4-0.3,8-0.3,12c0,118.3,95.9,214.3,214.3,214.3c78.4,0,147-42.1,184.3-105
		c20.5,9.1,77.7,31.9,130.4,29.2c55.3,0,93.3-48.4,96.8-55.3C1003.5,293.5,1005.2,281.4,991.4,281.4z"/>
	<circle class="st1" cx="495.1" cy="181.1" r="37.9"/>
	<circle class="st1" cx="593" cy="201" r="63.1"/>
	<circle class="st1" cx="682" cy="245.1" r="38"/>
	<circle class="st1" cx="737.3" cy="267.5" r="22.5"/>
	<circle class="st1" cx="438.4" cy="186.5" r="24.2"/>
	<path class="st0" d="M440.4,167.6c3.7,0,7.3,0.9,10.4,2.5c-3.4-2.6-7.7-4.2-12.3-4.2c-11.3,0-20.4,9.1-20.4,20.4
		c0,0.7,0,1.4,0.1,2.1C418.8,176.9,428.5,167.6,440.4,167.6z"/>
	<path class="st0" d="M738.8,250.8c3,0,5.9,0.7,8.4,2.1c-2.8-2.1-6.2-3.4-10-3.4c-9.1,0-16.5,7.4-16.5,16.5c0,0.6,0,1.1,0.1,1.7
		C721.3,258.3,729.2,250.8,738.8,250.8z"/>
	<path class="st0" d="M496.9,151.5c5.4,0,10.5,1.3,15,3.7c-5-3.8-11.2-6-17.9-6c-16.4,0-29.6,13.3-29.6,29.6c0,1,0.1,2,0.2,3
		C465.7,164.9,479.7,151.5,496.9,151.5z"/>
	<path class="st0" d="M684,216.4c5.7,0,11.1,1.4,15.8,3.8c-5.2-3.9-11.7-6.2-18.8-6.2c-17.2,0-31.1,13.7-31.1,30.6
		c0,1.1,0.1,2.1,0.2,3.1C651.2,230.2,665.9,216.4,684,216.4z"/>
	<path class="st0" d="M595.2,151.5c9.1,0,17.6,2.2,25.1,6.2c-8.3-6.3-18.7-10.1-30-10.1c-27.4,0-49.6,22.2-49.6,49.6
		c0,1.7,0.1,3.4,0.3,5.1C542.9,173.9,566.4,151.5,595.2,151.5z"/>
	<path class="st1" d="M414.4,183l3.4-9.4c0,0-25.8,1.7-40.1,5.4c-1.2,6.6-1.3,8.2-1.3,8.2L414.4,183z"/>
	<path class="st1" d="M788.9,294.2c0,0-24.1-10.4-31.3-17.7c-7.2,1.7-7.3,9.3-7.3,9.3s11.8,8,34,18.6
		C788.9,293.4,788.9,294.2,788.9,294.2z"/>
	<g>
		<path d="M188.3,818.5c2.5,0,4.6,0.9,6.4,2.6c1.8,1.8,2.7,3.9,2.7,6.4c0,2.5-0.9,4.6-2.7,6.4s-3.9,2.6-6.4,2.6
			c-2.5,0-4.6-0.9-6.4-2.6s-2.7-3.9-2.7-6.4c0-2.5,0.9-4.6,2.7-6.4C183.7,819.4,185.8,818.5,188.3,818.5z"/>
		<path d="M254.7,784.7h32.6v6.3h-26.1v20.3h26.1v6.3h-26.1v31.8h-6.5V784.7z"/>
		<path d="M354.5,801.5v47.9h-6.1v-8.2c-2.6,3.1-5.5,5.5-8.7,7.1c-3.2,1.6-6.8,2.4-10.6,2.4c-6.8,0-12.6-2.5-17.4-7.4
			c-4.8-4.9-7.2-10.9-7.2-17.9c0-6.9,2.4-12.8,7.3-17.7s10.7-7.3,17.5-7.3c3.9,0,7.5,0.8,10.7,2.5c3.2,1.7,6,4.2,8.4,7.5v-8.8H354.5
			z M329.8,806.2c-3.4,0-6.6,0.8-9.5,2.5c-2.9,1.7-5.2,4-7,7.1c-1.7,3-2.6,6.3-2.6,9.7c0,3.4,0.9,6.6,2.6,9.7c1.7,3.1,4.1,5.5,7,7.2
			c2.9,1.7,6.1,2.6,9.4,2.6c3.4,0,6.6-0.8,9.6-2.5c3-1.7,5.4-4,7-6.9c1.6-2.9,2.5-6.2,2.5-9.8c0-5.5-1.8-10.2-5.5-13.9
			C339.7,808.1,335.2,806.2,329.8,806.2z"/>
		<path d="M401.7,806.8l-4,4.1c-3.3-3.2-6.5-4.8-9.7-4.8c-2,0-3.7,0.7-5.2,2c-1.4,1.3-2.1,2.9-2.1,4.6c0,1.6,0.6,3,1.8,4.4
			c1.2,1.4,3.7,3.1,7.4,5.1c4.6,2.4,7.7,4.7,9.4,6.9c1.6,2.2,2.4,4.7,2.4,7.5c0,3.9-1.4,7.3-4.2,10c-2.8,2.7-6.2,4.1-10.4,4.1
			c-2.8,0-5.4-0.6-7.9-1.8c-2.5-1.2-4.6-2.9-6.3-5l3.9-4.4c3.2,3.5,6.5,5.3,10.1,5.3c2.5,0,4.6-0.8,6.3-2.4c1.7-1.6,2.6-3.4,2.6-5.6
			c0-1.8-0.6-3.3-1.7-4.7c-1.2-1.3-3.8-3-7.8-5.1c-4.3-2.2-7.3-4.4-8.9-6.6c-1.6-2.2-2.3-4.6-2.3-7.4c0-3.6,1.2-6.7,3.7-9.1
			c2.5-2.4,5.6-3.6,9.5-3.6C392.7,800.3,397.2,802.4,401.7,806.8z"/>
		<path d="M421.7,783h6.2v27.1c2.5-3.3,5.3-5.7,8.3-7.4c3-1.6,6.3-2.4,9.8-2.4c3.6,0,6.8,0.9,9.6,2.7c2.8,1.8,4.8,4.3,6.2,7.3
			c1.3,3.1,2,7.9,2,14.4v24.6h-6.2v-22.8c0-5.5-0.2-9.2-0.7-11c-0.8-3.2-2.2-5.5-4.2-7.1c-2-1.6-4.7-2.4-7.9-2.4
			c-3.7,0-7.1,1.2-10.1,3.7c-3,2.5-4.9,5.5-5.9,9.1c-0.6,2.3-0.9,6.7-0.9,13v17.6h-6.2V783z"/>
		<path d="M488.1,781.8c1.4,0,2.6,0.5,3.6,1.5s1.5,2.2,1.5,3.6c0,1.4-0.5,2.6-1.5,3.6c-1,1-2.2,1.5-3.6,1.5c-1.4,0-2.6-0.5-3.6-1.5
			c-1-1-1.5-2.2-1.5-3.6c0-1.4,0.5-2.6,1.5-3.6C485.5,782.3,486.7,781.8,488.1,781.8z M485,801.5h6.2v47.9H485V801.5z"/>
		<path d="M535.9,800.3c7.4,0,13.5,2.7,18.4,8c4.4,4.9,6.6,10.6,6.6,17.3c0,6.7-2.3,12.5-7,17.5c-4.7,5-10.7,7.5-18,7.5
			c-7.4,0-13.4-2.5-18.1-7.5c-4.7-5-7-10.8-7-17.5c0-6.6,2.2-12.4,6.6-17.2C522.3,803,528.5,800.3,535.9,800.3z M535.9,806.3
			c-5.1,0-9.6,1.9-13.3,5.7c-3.7,3.8-5.5,8.4-5.5,13.7c0,3.5,0.8,6.7,2.5,9.7s4,5.3,6.8,6.9c2.9,1.6,6,2.4,9.4,2.4
			c3.4,0,6.6-0.8,9.4-2.4c2.9-1.6,5.1-3.9,6.8-6.9c1.7-3,2.5-6.2,2.5-9.7c0-5.4-1.9-9.9-5.6-13.7C545.4,808.2,541,806.3,535.9,806.3
			z"/>
		<path d="M581.5,801.5h6.2v8.6c2.5-3.3,5.2-5.7,8.2-7.4c3-1.6,6.3-2.4,9.8-2.4c3.6,0,6.8,0.9,9.6,2.7c2.8,1.8,4.8,4.3,6.2,7.3
			s2,7.9,2,14.4v24.6h-6.2v-22.8c0-5.5-0.2-9.2-0.7-11c-0.7-3.2-2.1-5.5-4.1-7.1c-2-1.6-4.7-2.4-8-2.4c-3.7,0-7.1,1.2-10.1,3.7
			c-3,2.5-4.9,5.5-5.9,9.1c-0.6,2.4-0.9,6.7-0.9,13v17.6h-6.2V801.5z"/>
		<path d="M743.6,795.5l-5,4.8c-3.6-3.5-7.6-6.2-11.9-8.1c-4.3-1.8-8.5-2.7-12.6-2.7c-5.1,0-10,1.2-14.6,3.7
			c-4.6,2.5-8.2,5.9-10.7,10.1s-3.8,8.8-3.8,13.5c0,4.9,1.3,9.5,3.9,13.9c2.6,4.4,6.2,7.8,10.9,10.3c4.6,2.5,9.7,3.8,15.2,3.8
			c6.7,0,12.3-1.9,17-5.6c4.6-3.8,7.4-8.6,8.2-14.6h-20.7v-6.2h28c-0.1,10-3,17.9-9,23.8c-5.9,5.9-13.8,8.8-23.7,8.8
			c-12,0-21.5-4.1-28.6-12.2c-5.4-6.3-8.1-13.5-8.1-21.8c0-6.1,1.5-11.8,4.6-17.1c3.1-5.3,7.3-9.4,12.7-12.4s11.5-4.5,18.3-4.5
			c5.5,0,10.7,1,15.6,3C734.2,788,739,791.2,743.6,795.5z"/>
		<path d="M765.5,801.5h6.3v7c1.9-2.8,3.9-4.8,6-6.2c2.1-1.4,4.3-2,6.5-2c1.7,0,3.5,0.5,5.5,1.6l-3.2,5.2c-1.3-0.6-2.4-0.8-3.3-0.8
			c-2.1,0-4.1,0.8-6,2.5c-1.9,1.7-3.4,4.3-4.4,7.9c-0.8,2.7-1.1,8.2-1.1,16.5v16.2h-6.3V801.5z"/>
		<path d="M826.9,800.3c7.4,0,13.5,2.7,18.4,8c4.4,4.9,6.6,10.6,6.6,17.3c0,6.7-2.3,12.5-7,17.5c-4.7,5-10.7,7.5-18,7.5
			c-7.4,0-13.4-2.5-18.1-7.5c-4.7-5-7-10.8-7-17.5c0-6.6,2.2-12.4,6.6-17.2C813.3,803,819.5,800.3,826.9,800.3z M826.9,806.3
			c-5.1,0-9.6,1.9-13.3,5.7c-3.7,3.8-5.5,8.4-5.5,13.7c0,3.5,0.8,6.7,2.5,9.7s4,5.3,6.8,6.9c2.9,1.6,6,2.4,9.4,2.4
			c3.4,0,6.6-0.8,9.4-2.4c2.9-1.6,5.1-3.9,6.8-6.9c1.7-3,2.5-6.2,2.5-9.7c0-5.4-1.9-9.9-5.6-13.7C836.4,808.2,832,806.3,826.9,806.3
			z"/>
		<path d="M871.7,801.5h6.2v22.3c0,5.5,0.3,9.2,0.9,11.3c0.9,2.9,2.6,5.3,5.1,7c2.5,1.7,5.5,2.6,8.9,2.6s6.4-0.8,8.8-2.5
			c2.4-1.7,4.1-3.8,5-6.5c0.6-1.8,0.9-5.8,0.9-11.7v-22.3h6.3V825c0,6.6-0.8,11.6-2.3,14.9c-1.5,3.3-3.9,6-7,7.9
			c-3.1,1.9-7,2.8-11.7,2.8s-8.6-0.9-11.7-2.8s-5.5-4.5-7-7.9s-2.3-8.5-2.3-15.3V801.5z"/>
		<path d="M936.6,801.5h6.2v8.8c2.4-3.3,5.3-5.9,8.4-7.5c3.2-1.7,6.7-2.5,10.6-2.5c6.8,0,12.7,2.4,17.5,7.3s7.3,10.8,7.3,17.7
			c0,7-2.4,13-7.2,17.9c-4.8,4.9-10.6,7.4-17.4,7.4c-3.8,0-7.3-0.8-10.6-2.4c-3.2-1.6-6.1-3.9-8.7-7.1v25.7h-6.2V801.5z
			 M961.4,806.2c-5.4,0-9.9,1.9-13.5,5.6c-3.7,3.7-5.5,8.3-5.5,13.9c0,3.6,0.8,6.9,2.4,9.8c1.6,2.9,4,5.2,7,6.9s6.3,2.5,9.6,2.5
			c3.3,0,6.4-0.9,9.4-2.6c2.9-1.7,5.3-4.1,7-7.2c1.7-3.1,2.6-6.3,2.6-9.7c0-3.4-0.9-6.6-2.6-9.7c-1.7-3-4-5.4-6.9-7.1
			C968,807.1,964.8,806.2,961.4,806.2z"/>
		<path d="M1052.9,818.5c2.5,0,4.6,0.9,6.4,2.6c1.8,1.8,2.7,3.9,2.7,6.4c0,2.5-0.9,4.6-2.7,6.4c-1.8,1.8-3.9,2.6-6.4,2.6
			s-4.6-0.9-6.4-2.6s-2.7-3.9-2.7-6.4c0-2.5,0.9-4.6,2.7-6.4C1048.2,819.4,1050.4,818.5,1052.9,818.5z"/>
	</g>
	<path class="st1" d="M411.5,108.3c0,0,9.3-33.2,37.3-28.6c-2.8-36.6,32.5-46.2,51.9-34.3c5.4-31,45-32.9,65.7-14.1
		c24.4-28.9,64.9-11.1,71.9,10.4c27.9-18.2,61.5,1,70.7,26.3c32.7-0.6,50.4,17.4,45,48.4c28.8,1.6,47,29.4,26.5,56.2
		c25.5,13.6,17,43.8,17,43.8s-2.8-36.6-23.9-42.5c11.1-16.4,21.7-42.7-20.5-54.5c-0.6-32.7-20-44.6-45.8-45.4
		c-27.4-53.2-59.1-32.8-70.7-26.3c-17.4-30.9-52.2-34.1-68.9-9.5c-32-25.2-58.1-13-61.9,11.9C453.3,28.9,451,83.6,451,83.6
		S425.1,82.9,411.5,108.3z"/>
	<path class="st1" d="M377.8,216c0,0-0.2,33.5,26.5,47.1c-11.2,18.2-12.7,45.3,24.9,52.7c-6.3,22.6,13.6,49.6,47.8,47
		c2.5,12.9,21.6,42.7,61.9,29.5c19.5,17.7,46.2,31.2,68.2,6.9c15.4,10.4,51.4,23.5,62.5-16.1c57.8,22.3,51.2-30.3,51.2-30.3
		s39.4,0.8,47.3-27.5c-0.7,24.2-31.5,30.8-41.9,32.5c5.1,19.7-23.9,49.7-52.6,32.5c-12.8,23.9-28.9,37.7-65.3,15.3
		c-21.3,21.5-57.2,8.4-71-7.7c-25.8,5-55.7,2.7-64.7-30.3c-39.1-1.8-51.4-23.5-47.8-47c-28.3-7.9-44.9-24.8-26.9-56.3
		C376.8,252.3,376.3,221.7,377.8,216z"/>
</g>
</svg>
