<?xml version="1.0" encoding="utf-8"?>
<!-- Generator: Adobe Illustrator 22.0.0, SVG Export Plug-In . SVG Version: 6.00 Build 0)  -->
<svg version="1.1" id="Слой_1" xmlns="http://www.w3.org/2000/svg" xmlns:xlink="http://www.w3.org/1999/xlink" x="0px" y="0px"
	 viewBox="0 0 127 115" style="enable-background:new 0 0 127 115;" xml:space="preserve">
<style type="text/css">
	.st0{fill:#FFFFFF;}
</style>
<g>
	<path class="st0" d="M126.7,115c-7.5-21.9-32.9-38-63.1-38S8,93.1,0.5,115H126.7z"/>
</g>
<g>
	<path class="st0" d="M63.6,0C43,0,26.3,16.7,26.3,37.3C26.3,58,43,74.7,63.6,74.7S101,58,101,37.3C101,16.7,84.2,0,63.6,0z
		 M54,23.5c-7.8,8.3-19.8,10.5-24.2,9.2c0,0,4.7-28,34.5-28.8c26.3,0.8,31.5,25.3,31.5,25.3S70.7,42.5,54,23.5z"/>
</g>
</svg>
